Open Trade Statistics
…
# Now with purrr I can combine the three resulting datasets
# Chile-Argentina, Chile-Bolivia, and Chile-Perú
ots_data <- map_df(partners, read_from_ots)
```

---

## Comparison between APIs

### Open Trade Statistics

```
## # A tibble: 2,767 x 6
##     year reporter_iso partner_iso product_code import_value_usd
##    <int> <chr>        <chr>       <chr>                   <int>
##  1  2016 chl          arg         2713                   430792
##  2  2016 chl          arg         2707                  5362832
##  3  2016 chl          arg         2705                     1405
##  4  2016 chl          arg         2704                  1506201
##  5  2016 chl          arg         2703                    20518
##  6  2016 chl          arg         2617                     4408
##  7  2016 chl          arg         2526                   147509
##  8  2016 chl          arg         2525                    10288
##  9  2016 chl          arg         2522                 54386957
## 10  2016 chl          arg         2521                    23209
## # … with 2,757 more rows, and 1 more variable: export_value_usd <int>
```
…
---

## Comparison between APIs

### Open Trade Statistics

Now I can say that in 2016, Chile exported primarily vehicles to Argentina, Bolivia and Perú.

```
## # A tibble: 97 x 2
##    group_name                                              export_value_usd
##    <chr>                                                              <int>
##  1 Vehicles; other than railway or tramway rolling stock,…        443991154
##  2 Nuclear reactors, boilers, machinery and mechanical ap…        325689285
##  3 Electrical machinery and equipment and parts thereof; …        179255928
##  4 Plastics and articles thereof                                  171601876
##  5 Mineral fuels, mineral oils and products of their dist…        157105626
##  6 Iron or steel articles                                         152854400
##  7 Miscellaneous edible preparations                              149430227
##  8 Paper and paperboard; articles of paper pulp, of paper…        148626023
##  9 Fruit and nuts, edible; peel of citrus fruit or melons         138454388
## 10 Wood and articles of wood; wood charcoal                       113018698
## # … with 87 more rows
```
…
# One problem here is that the API returns a nested JSON that doesn't work with map_df
# I can obtain the same result with map and bind_rows
oec_data <- map(destination, read_from_oec)
oec_data <- bind_rows(oec_data[[1]]$data, oec_data[[2]]$data, oec_data[[3]]$data)
```

---

## Comparison between APIs

### The Observatory of Economic Complexity

```
## # A tibble: 9,933 x 4
##    dest_id hs07_id  hs07_id_len export_val
##    <chr>   <chr>          <dbl>      <dbl>
##  1 saarg   010101             6    455453.
##  2 saarg   01010110           8    100653.
##  3 saarg   01010190           8    354799.
##  4 saarg   010106             6        NA 
##  5 saarg   01010619           8        NA 
##  6 saarg   010201             6        NA 
##  7 saarg   01020130           8        NA 
##  8 saarg   010202             6        NA 
##  9 saarg   01020230           8        NA 
## 10 saarg   010204             6        NA 
## # ... with 9,923 more rows
```
…
---

## Comparison between APIs

### The Observatory of Economic Complexity

```
## # A tibble: 2,565 x 3
##    dest_id hs07_id export_val
##    <chr>   <chr>        <dbl>
##  1 saarg   0101       455453.
##  2 saarg   0106           NA 
##  3 saarg   0201           NA 
##  4 saarg   0202           NA 
##  5 saarg   0204           NA 
##  6 saarg   0206           NA 
##  7 saarg   0207           NA 
##  8 saarg   0302     36718891.
##  9 saarg   0303       211295.
## 10 saarg   0304     15793369.
## # ... with 2,555 more rows
```
…
# The resulting JSON doesn't work with map_df either
# This can still be combined without much hassle
atlas_data <- map(destination, read_from_atlas)
atlas_data <- bind_rows(atlas_data[[1]]$data, atlas_data[[2]]$data, atlas_data[[3]]$data)
```

---

## Comparison between APIs

### The Atlas of Economic Complexity

```
## # A tibble: 62,959 x 4
##     year partner_id product_id export_value
##    <int>      <int>      <int>        <int>
##  1  1995          8        650        23207
##  2  1996          8        650       152075
##  3  1997          8        650       131174
##  4  1998          8        650        64352
##  5  1999          8        650        78678
##  6  2000          8        650        85993
##  7  2001          8        650       500513
##  8  2002          8        650       191069
##  9  2003          8        650        89214
## 10  2004          8        650       242463
## # ... with 62,949 more rows
```
…
atlas_data_2 <- atlas_data %>% 
  filter(year == 2016) %>%
  left_join(atlas_id_to_hs, by = c("product_id" = "id")) %>% 
  left_join(atlas_id_to_iso, by = c("partner_id" = "id"))
```

---

## Comparison between APIs

### The Atlas of Economic Complexity

```
## # A tibble: 2,705 x 3
##    code.y code.x export_value
##    <chr>  <chr>         <int>
##  1 ARG    0101         472353
##  2 ARG    0106              0
##  3 ARG    0201              0
##  4 ARG    0202              0
##  5 ARG    0204              0
##  6 ARG    0206              0
##  7 ARG    0207              0
##  8 ARG    0302       34514964
##  9 ARG    0303         214817
## 10 ARG    0304       14997462
## # ... with 2,695 more rows
```
…
fji_usa_2 <- fji_usa %>% 
  select(product_shortname_english, export_value_usd) %>% 
  arrange(-export_value_usd) %>% 
  mutate(export_value_share = round(100 * export_value_usd /
                                      sum(export_value_usd, na.rm = T), 2))
```

---

## R package

```
## # A tibble: 736 x 3
##    product_shortname_english export_value_usd export_value_share
##    <chr>                                <int>              <dbl>
##  1 Water                            233431002              60   
##  2 Processed Fish                    61666883              15.8 
##  3 Non-fillet Fresh Fish             18503975               4.76
##  4 Raw Sugar                         12600118               3.24
##  5 Broadcasting Equipment            10967992               2.82
##  6 Perfume Plants                     7273321               1.87
##  7 Fish Fillets                       5540948               1.42
##  8 Unspecified                        4246687               1.09
##  9 Non-fillet Frozen Fish             4033516               1.04
## 10 Molasses                           3578212               0.92
## # ... with 726 more rows
```
…
  group_by(reporter_iso, is_eu28) %>% 
  summarise(export_value_usd = sum(export_value_usd, na.rm = T)) %>% 
  
  group_by(reporter_iso) %>%
  mutate(pct_to_eu28 = export_value_usd / sum(export_value_usd, na.rm = T)) %>% 
  
  filter(is_eu28 == 1) %>% 
  select(reporter_iso, export_value_usd, pct_to_eu28) %>% 
  arrange(-export_value_usd)
```

---

```
## # A tibble: 48 x 3
## # Groups:   reporter_iso [48]
##    reporter_iso export_value_usd pct_to_eu28
##    <chr>                   <dbl>       <dbl>
##  1 usa              406704170165      0.218 
##  2 can               51259679792      0.109 
##  3 bra               45042481104      0.174 
##  4 mex               34405957170      0.0711
##  5 chl               10937519973      0.144 
##  6 arg               10872575385      0.165 
##  7 per                8375757038      0.170 
##  8 col                8124020268      0.168 
##  9 cri                3922634462      0.246 
## 10 ecu                3917486407      0.169 
## # … with 38 more rows
```
…
